A Houston
B Austin
C SanAntonio
D Dallas
E Everett
F Frisco
G GrandPrairie
H Halifax
I Indianapolis
J Johannesburg
K Kyoto
L London
M Monaco
N Newark
O Omaha
P Paris
Q Queens
R Raleigh
S Seoul
T Toronto
U Udaipur
V Vienna
W Westchester
X Xianyang
Y Yonkers
Z Zurich