.......
----------------------------------------------------------------------
Ran 7 tests in 0.001s
OK
Name               Stmts   Miss Branch BrPart  Cover   Missing
--------------------------------------------------------------
Diplomacy.py          57      0     32      0   100%
TestDiplomacy.py      39      0      0      0   100%
--------------------------------------------------------------
TOTAL                 96      0     32      0   100%
